…
#### Use dplyr’s “filter” function to select rows based on specified conditions.

*In this example, we will only select rows that have a 5 Star rating.*

    five_stars <- filter(ramen_ratings, Stars == 5)
    five_stars

    ## # A tibble: 369 x 7
    ##    Review.. Brand      Variety                      Style Country  Stars Top.Ten
    ##       <int> <fct>      <fct>                        <fct> <fct>    <fct> <fct>  
    ##  1     2570 Tao Kae N… Creamy tom Yum Kung Flavour  Pack  Thailand 5     ""     
    ##  2     2569 Yamachan   Yokohama Tonkotsu Shoyu      Pack  USA      5     ""     
    ##  3     2566 Nissin     Demae Ramen Bar Noodle Aka … Pack  Hong Ko… 5     ""     
    ##  4     2563 Yamachan   Tokyo Shoyu Ramen            Pack  USA      5     ""     
    ##  5     2559 Jackpot T… Beef Ramen                   Pack  USA      5     ""     
    ##  6     2558 KOKA       Creamy Soup With Crushed No… Cup   Singapo… 5     ""     
    ##  7     2552 MyKuali    Penang White Curry Rice Ver… Bowl  Malaysia 5     ""     
    ##  8     2550 Samyang F… Paegaejang Ramen             Pack  South K… 5     ""     
    ##  9     2545 KOKA       Instant Noodles Laksa Singa… Pack  Singapo… 5     ""     
    ## 10     2543 KOKA       Curry Flavour Instant Noodl… Cup   Singapo… 5     ""     
    ## # … with 359 more rows

#### Finally, use dplyr’s “select” function to select specific data columns from the dataset.

*In this example, we will select the “Brand”, “Variety”, “Country”,
“Stars”, and “Top.Ten” columns for brands that have a Top.Ten listing.*

    # Select only the rows with Top.Ten column entries whilst removing those
    # with NA, empty, or "\n" values.
    ramen_ratings_filtered <- filter(ramen_ratings, Top.Ten != "" & !is.na(Top.Ten) & Top.Ten != "\n")

    ramen_top_ten <- select(ramen_ratings_filtered, c("Brand", "Variety", "Country", "Stars", "Top.Ten"))
    ramen_top_ten

    ## # A tibble: 37 x 5
    ##    Brand         Variety                                  Country  Stars Top.Ten
    ##    <fct>         <fct>                                    <fct>    <fct> <fct>  
    ##  1 MAMA          Instant Noodles Coconut Milk Flavour     Myanmar  5     2016 #…
    ##  2 Prima Taste   Singapore Laksa Wholegrain La Mian       Singapo… 5     2016 #1
    ##  3 Prima         Juzz's Mee Creamy Chicken Flavour        Singapo… 5     2016 #8
    ##  4 Prima Taste   Singapore Curry Wholegrain La Mian       Singapo… 5     2016 #5
    ##  5 Tseng Noodles Scallion With Sichuan Pepper  Flavor     Taiwan   5     2016 #9
    ##  6 Wugudaochang  Tomato Beef Brisket Flavor Purple Potat… China    5     2016 #7
    ##  7 A-Sha Dry No… Veggie Noodle Tomato Noodle With Vine R… Taiwan   5     2015 #…
    ##  8 MyKuali       Penang Hokkien Prawn Noodle (New Improv… Malaysia 5     2015 #7
    ##  9 CarJEN        Nyonya Curry Laksa                       Malaysia 5     2015 #4
    ## 10 Maruchan      Gotsumori Sauce Yakisoba                 Japan    5     2015 #9
    ## # … with 27 more rows
…
